type,value,
base_theme,2,
theme_boost_header_color,-14145496,
theme_text_header_1_line,-1,
theme_text_header_2_line,-1,
theme_statuses_color,-14935012,
theme_link_color,-14059009,
theme_icons_color,-9474193,
pref_color_background,-15921907,
pref_color_navigation_bar,true,
pref_color_status_bar,true,
theme_accent,-14059009,
theme_text_color,-1,
theme_primary,-14474461,
